{
  "project_info": {
    "project_number": "52588496909",
    "firebase_url": "https://kvchatappzh.firebaseio.com",
    "project_id": "kvchatappzh",
    "storage_bucket": "kvchatappzh.appspot.com"
  },
  "client": [
    {
      "client_info": {
        "mobilesdk_app_id": "1:52588496909:android:2bbce14d9ea70a1250ed44",
        "android_client_info": {
          "package_name": "com.ferit.kvchatappzh"
        }
      },
      "oauth_client": [
        {
          "client_id": "52588496909-i7f74qpbc8jhujc9cljn2tqid5sk0dq5.apps.googleusercontent.com",
          "client_type": 1,
          "android_info": {
            "package_name": "com.ferit.kvchatappzh",
            "certificate_hash": "758199e0da5b91c6bf70a689395d3f773c909b92"
          }
        },
        {
          "client_id": "52588496909-1snma602k27r51fjhc0gig0i27p5vsim.apps.googleusercontent.com",
          "client_type": 3
        }
      ],
      "api_key": [
        {
          "current_key": "AIzaSyCWdYDTqj22Spinoe-eTBfg2qQ-6TAx-p8"
        }
      ],
      "services": {
        "appinvite_service": {
          "other_platform_oauth_client": [
            {
              "client_id": "52588496909-1snma602k27r51fjhc0gig0i27p5vsim.apps.googleusercontent.com",
              "client_type": 3
            }
          ]
        }
      }
    }
  ],
  "configuration_version": "1"
}